STA 199 Spring 2026 – Grammar of data visualization
…
Note

Let’s leave these details aside for a bit, we’ll revisit this code at a later point in the semester. For now, let’s agree that we need to do some “data wrangling” to get the data into the right format for the plot we want to create. Just note that we called the data frame we’ll visualize us_uk_tr_votes.

View the data

us_uk_tr_votes

# A tibble: 1,212 × 4
   country  year issue                        percent_yes
   <chr>   <dbl> <fct>                              <dbl>
 1 Turkey   1946 Colonialism                        0.8  
 2 Turkey   1946 Economic development               0.6  
 3 Turkey   1946 Human rights                       0    
 4 Turkey   1947 Colonialism                        0.222
 5 Turkey   1947 Economic development               0.5  
 6 Turkey   1947 Palestinian conflict               0.143
 7 Turkey   1948 Colonialism                        0.417
 8 Turkey   1948 Arms control and disarmament       0    
 9 Turkey   1948 Economic development               0.375
10 Turkey   1948 Human rights                       0.167
# ℹ 1,202 more rows
…
