Exploring data I – STA 199 Spring 2026
…
For the data: usdata

library(usdata)

For the analysis: tidyverse and ggthemes

library(tidyverse)
library(ggthemes)

Data: gerrymander

gerrymander

# A tibble: 435 × 12
   district last_name first_name party16 clinton16 trump16 dem16 state party18
   <chr>    <chr>     <chr>      <chr>       <dbl>   <dbl> <dbl> <chr> <chr>  
 1 AK-AL    Young     Don        R            37.6    52.8     0 AK    R      
 2 AL-01    Byrne     Bradley    R            34.1    63.5     0 AL    R      
 3 AL-02    Roby      Martha     R            33      64.9     0 AL    R      
 4 AL-03    Rogers    Mike D.    R            32.3    65.3     0 AL    R      
 5 AL-04    Aderholt  Rob        R            17.4    80.4     0 AL    R      
 6 AL-05    Brooks    Mo         R            31.3    64.7     0 AL    R      
 7 AL-06    Palmer    Gary       R            26.1    70.8     0 AL    R      
 8 AL-07    Sewell    Terri      D            69.8    28.6     1 AL    D      
 9 AR-01    Crawford  Rick       R            30.2    65       0 AR    R      
10 AR-02    Hill      French     R            41.7    52.4     0 AR    R      
# ℹ 425 more rows
# ℹ 3 more variables: dem18 <dbl>, flip18 <dbl>, gerry <fct>
…
party18

dem18

flip18

gerry

Congressional district:

gerrymander |>
  select(district)

# A tibble: 435 × 1
   district
   <chr>   
 1 AK-AL   
 2 AL-01   
 3 AL-02   
 4 AL-03   
 5 AL-04   
 6 AL-05   
 7 AL-06   
 8 AL-07   
 9 AR-01   
10 AR-02   
# ℹ 425 more rows
…
party18

dem18

flip18

gerry

Last name of 2016 election winner:

gerrymander |>
  select(last_name)

# A tibble: 435 × 1
   last_name
   <chr>    
 1 Young    
 2 Byrne    
 3 Roby     
 4 Rogers   
 5 Aderholt 
 6 Brooks   
 7 Palmer   
 8 Sewell   
 9 Crawford 
10 Hill     
# ℹ 425 more rows
…
party18

dem18

flip18

gerry

First name of 2016 election winner:

gerrymander |>
  select(first_name)

# A tibble: 435 × 1
   first_name
   <chr>     
 1 Don       
 2 Bradley   
 3 Martha    
 4 Mike D.   
 5 Rob       
 6 Mo        
 7 Gary      
 8 Terri     
 9 Rick      
10 French    
# ℹ 425 more rows
…
party18

dem18

flip18

gerry

Political party of 2016 election winner:

gerrymander |>
  select(party16)

# A tibble: 435 × 1
   party16
   <chr>  
 1 R      
 2 R      
 3 R      
 4 R      
 5 R      
 6 R      
 7 R      
 8 D      
 9 R      
10 R      
# ℹ 425 more rows
…
party18

dem18

flip18

gerry

Percent of vote received by Clinton in 2016 Presidential Election:

gerrymander |>
  select(clinton16)

# A tibble: 435 × 1
   clinton16
       <dbl>
 1      37.6
 2      34.1
 3      33  
 4      32.3
 5      17.4
 6      31.3
 7      26.1
 8      69.8
 9      30.2
10      41.7
# ℹ 425 more rows
…
party18

dem18

flip18

gerry

Percent of vote received by Trump in 2016 Presidential Election:

gerrymander |>
  select(trump16)

# A tibble: 435 × 1
   trump16
     <dbl>
 1    52.8
 2    63.5
 3    64.9
 4    65.3
 5    80.4
 6    64.7
 7    70.8
 8    28.6
 9    65  
10    52.4
# ℹ 425 more rows
…
party18

dem18

flip18

gerry

Did a Democrat win the 2016 House election. Levels of 1 (yes) and 0 (no):

gerrymander |>
  select(dem16)

# A tibble: 435 × 1
   dem16
   <dbl>
 1     0
 2     0
 3     0
 4     0
 5     0
 6     0
 7     0
 8     1
 9     0
10     0
# ℹ 425 more rows
…
party18

dem18

flip18

gerry

State the Representative is from:

gerrymander |>
  select(state)

# A tibble: 435 × 1
   state
   <chr>
 1 AK   
 2 AL   
 3 AL   
 4 AL   
 5 AL   
 6 AL   
 7 AL   
 8 AL   
 9 AR   
10 AR   
# ℹ 425 more rows
…
party18
categorical

dem18

flip18

gerry

Political Party of the 2018 election winner:

gerrymander |>
  select(party18)

# A tibble: 435 × 1
   party18
   <chr>  
 1 R      
 2 R      
 3 R      
 4 R      
 5 R      
 6 R      
 7 R      
 8 D      
 9 R      
10 R      
# ℹ 425 more rows
…
dem18
categorical

flip18

gerry

Did a Democrat win the 2018 House election. Levels of 1 (yes) and 0 (no):

gerrymander |>
  select(dem18)

# A tibble: 435 × 1
   dem18
   <dbl>
 1     0
 2     0
 3     0
 4     0
 5     0
 6     0
 7     0
 8     1
 9     0
10     0
# ℹ 425 more rows
…
dem18
categorical

flip18
categorical

gerry

In the 2018 election, did the seat flip from D to R (-1), from R to D (1), or not change (0)?

gerrymander |>
  select(flip18)

# A tibble: 435 × 1
   flip18
    <dbl>
 1      0
 2      0
 3      0
 4      0
 5      0
 6      0
 7      0
 8      0
 9      0
10      0
# ℹ 425 more rows
…
dem18
categorical

flip18
categorical

gerry
categorical, ordinal

Categorical variable for prevalence of gerrymandering with levels of low, mid and high:

gerrymander |>
  select(gerry)

# A tibble: 435 × 1
   gerry
   <fct>
 1 mid  
 2 high 
 3 high 
 4 high 
 5 high 
 6 high 
 7 high 
 8 high 
 9 mid  
10 mid  
# ℹ 425 more rows
…
