STA 199 Spring 2026 - AE 01: Income inequality
…
Rows: 549 Columns: 5
── Column specification ────────────────────────────────────────────────────────
Delimiter: ","
chr (2): country, country_code
dbl (3): year, gini_pre_tax, gini_post_tax

ℹ Use `spec()` to retrieve the full column specification for this data.
ℹ Specify the column types or set `show_col_types = FALSE` to quiet this message.

And take a look at the first 10 rows.

income_inequality

# A tibble: 549 × 5
   country   country_code  year gini_pre_tax gini_post_tax
   <chr>     <chr>        <dbl>        <dbl>         <dbl>
 1 Australia AUS           1989        0.431         0.304
 2 Australia AUS           1995        0.47          0.311
 3 Australia AUS           2001        0.481         0.32 
 4 Australia AUS           2003        0.469         0.316
 5 Australia AUS           2004        0.467         0.316
 6 Australia AUS           2008        0.469         0.335
 7 Australia AUS           2010        0.47          0.333
 8 Australia AUS           2014        0.481         0.329
 9 Australia AUS           2016        0.467         0.326
10 Australia AUS           2018        0.469         0.329
# ℹ 539 more rows
…
